<?xml version="1.0" encoding="utf-8"?>
<!-- Generator: Adobe Illustrator 25.0.0, SVG Export Plug-In . SVG Version: 6.00 Build 0)  -->
<svg version="1.1" id="Layer_1" xmlns="http://www.w3.org/2000/svg" xmlns:xlink="http://www.w3.org/1999/xlink" x="0px" y="0px"
	 viewBox="0 0 108 108" style="enable-background:new 0 0 108 108;" xml:space="preserve">
<style type="text/css">
	.st0{fill:#23A9C6;}
</style>
<g id="plate" transform="translate(31.705 28.788)">
	<path id="Path_15" class="st0" d="M21.6,14c-6.4,0-11.5,5.2-11.5,11.5s5.2,11.5,11.5,11.5s11.5-5.2,11.5-11.5l0,0
		C33.1,19.2,28,14,21.6,14C21.6,14,21.6,14,21.6,14z M21.6,35.4c-5.5,0-9.9-4.4-9.9-9.9c0-5.5,4.4-9.9,9.9-9.9
		c5.5,0,9.9,4.4,9.9,9.9c0,0,0,0,0,0C31.5,31,27.1,35.4,21.6,35.4z"/>
	<path id="Path_16" class="st0" d="M41.4,32.5V5.7c0-0.3-0.2-0.7-0.5-0.8c-0.3-0.1-0.7,0-0.9,0.3c-2.2,2.9-3.8,6.2-4.6,9.8
		c-0.4-0.6-0.9-1.2-1.5-1.7c-6.7-6.7-17.7-6.7-24.4,0c0,0,0,0,0,0l-0.3,0.3V5.7c0-0.4-0.3-0.8-0.8-0.8c-0.4,0-0.8,0.3-0.8,0.8v9.6
		H5.9V5.7c0-0.4-0.3-0.8-0.8-0.8c-0.4,0-0.8,0.3-0.8,0.8v9.6H2.8V5.7c0-0.4-0.3-0.8-0.8-0.8c0,0,0,0,0,0c-0.5,0-0.9,0.3-0.9,0.8
		v10.4c0,1.3,0.6,2.5,1.6,3.2v13.1C2.2,36.9,1.9,42,1.9,42.8c0,1.8,1.5,3.2,3.3,3.2c1.7,0,3.1-1.4,3.2-3.2c0-0.6-0.2-3.6-0.5-6.9
		c0.5,0.7,1,1.3,1.6,1.9c6.7,6.7,17.7,6.7,24.4,0c0,0,0,0,0,0c1-1,1.8-2,2.5-3.2c-0.4,3.8-0.6,7.6-0.6,8.2c0,1.8,1.4,3.2,3.2,3.3
		s3.2-1.4,3.3-3.2c0,0,0-0.1,0-0.1C42.2,42.1,41.8,37,41.4,32.5z M38.2,27h1.6v1.6h-1.6V27z M36.5,17c0.5-3.1,1.6-6,3.2-8.7v17.1
		h-2.1l-1.1-1.1L36.5,17z M4.3,27h1.6v1.6H4.3V27z M7.4,17c-0.2,0.5-0.6,1-1.1,1.3c-0.2,0.1-0.4,0.4-0.4,0.7v6.5H4.3v-6.4
		c0-0.3-0.1-0.5-0.4-0.7C3.4,18,3,17.5,2.8,17L7.4,17L7.4,17z M5.1,44.4c-0.9,0-1.6-0.7-1.6-1.6c0-0.6,0.8-10.2,0.8-10.3v-2.3h1.6
		v2.3c0,0,0.8,9.6,0.8,10.3c0,0.8-0.6,1.6-1.4,1.6C5.2,44.4,5.2,44.4,5.1,44.4z M21.6,41.2c-6,0-11.5-3.5-14.1-8.9V19.4
		c1-0.8,1.6-1.9,1.6-3.2c5.2-6.9,15-8.3,21.9-3.2c1.6,1.2,2.9,2.7,4,4.3v7.2c0,0.2,0.1,0.4,0.2,0.6l1.4,1.4v3.7
		C34.5,36.8,28.4,41.2,21.6,41.2z M39,44.4c-0.9,0-1.6-0.7-1.6-1.6c0-0.6,0.8-10.2,0.8-10.3v-2.3h1.6v2.3c0,0,0.8,9.6,0.8,10.3
		c0,0.8-0.6,1.6-1.4,1.6C39.1,44.4,39,44.4,39,44.4L39,44.4z"/>
	<path id="Path_17" class="st0" d="M21.8,32.1c-0.2,0-0.4,0.1-0.6,0.2c-0.3,0.3-0.3,0.8,0,1.2c0,0,0,0,0,0c0.2,0.2,0.4,0.2,0.6,0.2
		l0,0c0.5,0,0.8-0.4,0.8-0.8c0-0.2-0.1-0.4-0.2-0.6C22.2,32.2,22,32.1,21.8,32.1z"/>
	<path id="Path_18" class="st0" d="M28.2,25.6c0,2.5-1.4,4.8-3.7,5.9c-0.2,0.1-0.4,0.3-0.4,0.5c-0.1,0.2,0,0.4,0,0.6
		c0.1,0.3,0.4,0.4,0.7,0.4c0.1,0,0.3,0,0.4-0.1c1.3-0.7,2.5-1.7,3.3-3c0.8-1.3,1.3-2.8,1.3-4.4c0-0.4-0.4-0.8-0.8-0.8
		C28.6,24.7,28.2,25.1,28.2,25.6C28.2,25.5,28.2,25.5,28.2,25.6z"/>
</g>
</svg>
