<?xml version="1.0" encoding="utf-8"?>
<!-- Generator: Adobe Illustrator 25.0.0, SVG Export Plug-In . SVG Version: 6.00 Build 0)  -->
<svg version="1.1" id="Layer_1" xmlns="http://www.w3.org/2000/svg" xmlns:xlink="http://www.w3.org/1999/xlink" x="0px" y="0px"
	 viewBox="0 0 100 100" style="enable-background:new 0 0 100 100;" xml:space="preserve">
<style type="text/css">
	.st0{fill:#23A9C6;}
</style>
<g>
	<g>
		<path class="st0" d="M6.4,3.6c-1,0-1.9,0.8-1.9,1.9v15.2c0,1,0.8,1.9,1.9,1.9c38.7,0,70.1,31.5,70.1,70.1c0,1,0.8,1.9,1.9,1.9
			h15.2c1,0,1.9-0.8,1.9-1.9C95.5,43.6,55.5,3.6,6.4,3.6z"/>
		<path class="st0" d="M6.4,33.9c-1,0-1.9,0.8-1.9,1.9V51c0,1,0.8,1.9,1.9,1.9c21.9,0,39.8,17.9,39.8,39.8c0,1,0.8,1.9,1.9,1.9h15.2
			c1,0,1.9-0.8,1.9-1.9C65.2,60.3,38.8,33.9,6.4,33.9z"/>
		<circle class="st0" cx="17.8" cy="81.3" r="13.3"/>
	</g>
</g>
</svg>
